rightTruncation
…
Wrapper function for simulating the same data set and fitting it, just showing the fitted parameters here (the random number seed is fixed in the simulation function, hence the result is the same as above):

h_nr_one_sim_fit(N=10)$estimate
[1] 2.105375 8.240042

Real data, analyse as a data frame

Once we have much larger values of \(N\) it makes more sense to use a long data frame format for the data, particularly since we know the matrix is always upper triangular.

The actual data in British Columbia look like this, with a simple histogram of the delay times between symptom onset and reporting of a case:

delay_data
# A tibble: 1,066 x 3
   reported_date symptom_onset_date time_to_report
   <date>        <date>             <drtn>        
 1 2020-01-27    2020-01-22          5 days       
 2 2020-02-02    2020-01-27          6 days       
 3 2020-02-05    2020-01-24         12 days       
 4 2020-02-05    2020-01-15         21 days       
 5 2020-02-11    2020-02-09          2 days       
 6 2020-02-20    2020-02-14          6 days       
 7 2020-02-22    2020-02-18          4 days       
 8 2020-03-02    2020-02-25          6 days       
 9 2020-03-02    2020-02-27          4 days       
10 2020-03-03    2020-02-27          5 days       
# ... with 1,056 more rows
…
By definition there can be no values above the dashed 1:1 line in the top panel, because the delays to reporting are too long (any cases will be reported in the future, with data only up to 2020-05-05.

The actual values we need for the likelihood calculations are just counts \(h_{nr}\) of the number of cases that had symptom onset on day \(n\) and were reported on day \(r\), where \(n\) and \(r\) take values from \(0\) to \(N\). This function converts the above tibble into the required form:

h_nr_tibble <- make_h_nr_tibble(delay_data)
h_nr_tibble
# A tibble: 605 x 3
       n     r  h_nr
   <dbl> <dbl> <int>
 1     0    21     1
 2     7    12     1
 3     9    21     1
 4    12    18     1
 5    25    27     1
 6    30    36     1
 7    31    53     1
 8    34    38     1
 9    36    58     1
10    37    64     1
# ... with 595 more rows
# Show how many of each h_nr values there are:
…
New Zealand data

[This summarises from above what is needed]

We would like to fit a Weibull distribution to data on the delays between a person having the onset of symptoms and them being reported as a confirmed cases of COVID-19 in New Zealand. The data we have in British Columbia is a tibble with these (self-explanatory) headings (final column is just difference between the first two):

delay_data
# A tibble: 1,066 x 3
   reported_date symptom_onset_date time_to_report
   <date>        <date>             <drtn>        
 1 2020-01-27    2020-01-22          5 days       
 2 2020-02-02    2020-01-27          6 days       
 3 2020-02-05    2020-01-24         12 days       
 4 2020-02-05    2020-01-15         21 days       
 5 2020-02-11    2020-02-09          2 days       
 6 2020-02-20    2020-02-14          6 days       
 7 2020-02-22    2020-02-18          4 days       
 8 2020-03-02    2020-02-25          6 days       
 9 2020-03-02    2020-02-27          4 days       
10 2020-03-03    2020-02-27          5 days       
# ... with 1,056 more rows

This gets converted into the desired form for the likelihood function:

h_nr_tibble <- make_h_nr_tibble(delay_data)
h_nr_tibble
# A tibble: 605 x 3
       n     r  h_nr
   <dbl> <dbl> <int>
 1     0    21     1
 2     7    12     1
 3     9    21     1
 4    12    18     1
 5    25    27     1
 6    30    36     1
 7    31    53     1
 8    34    38     1
 9    36    58     1
10    37    64     1
# ... with 595 more rows
…
